[
    {
        "relation": [
            "delegate_permission/common.handle_all_urls"
        ],
        "target": {
            "namespace": "android_app",
            "package_name": "com.adventiel.todopwa",
            "sha256_cert_fingerprints": [
                "E7:8C:9E:F6:B1:8D:1F:25:65:6D:8C:93:41:BF:DD:C2:AD:B9:87:A7:7C:14:64:AE:BF:5D:9A:9B:4D:24:CA:DB"
            ]
        }
    }
]